[
    {
        "id": 1,
        "station": "Station A",
        "status": "En service",
        "capacity": 20,
        "nbbornettesLibre": 5,
        "nbtotalvelodispo": 15,
        "velomecadispo": 10,
        "veloelecdispo": 5,
        "bornedispo": true,
        "retourvelip": false,
        "commune": "Commune A"
    },
    {
        "id": 2,
        "station": "Station B",
        "status": "Hors service",
        "capacity": 10,
        "nbbornettesLibre": 2,
        "nbtotalvelodispo": 8,
        "velomecadispo": 6,
        "veloelecdispo": 2,
        "bornedispo": false,
        "retourvelip": true,
        "commune": "Commune B"
    }
]